<?xml version="1.0" encoding="UTF-8"?>
<svg width="12px" height="12px" viewBox="0 0 12 12" version="1.1" xmlns="http://www.w3.org/2000/svg" xmlns:xlink="http://www.w3.org/1999/xlink">
    <!-- Generator: Sketch 55.2 (78181) - https://sketchapp.com -->
    <title>close-24px</title>
    <desc>Created with Sketch.</desc>
    <g id="Web-app" stroke="none" stroke-width="1" fill="none" fill-rule="evenodd" opacity="0.299999982">
        <g id="Designhunt---Send-Invitations" transform="translate(-1089.000000, -260.000000)">
            <g id="Group-3" transform="translate(551.000000, 135.000000)">
                <g id="close-24px" transform="translate(534.000000, 121.000000)">
                    <polygon id="Path" fill="#000000" fill-rule="nonzero" points="15.8333333 5.34166667 14.6583333 4.16666667 10 8.825 5.34166667 4.16666667 4.16666667 5.34166667 8.825 10 4.16666667 14.6583333 5.34166667 15.8333333 10 11.175 14.6583333 15.8333333 15.8333333 14.6583333 11.175 10"></polygon>
                    <polygon id="Path" points="0 0 20 0 20 20 0 20"></polygon>
                </g>
            </g>
        </g>
    </g>
</svg>