<?xml version="1.0" encoding="UTF-8"?>
<svg width="1255px" height="1255px" viewBox="0 0 1255 1255" version="1.1" xmlns="http://www.w3.org/2000/svg" xmlns:xlink="http://www.w3.org/1999/xlink">
    <!-- Generator: Sketch 55.2 (78181) - https://sketchapp.com -->
    <title>Oval</title>
    <desc>Created with Sketch.</desc>
    <g id="Landing-Pages" stroke="none" stroke-width="1" fill="none" fill-rule="evenodd">
        <path d="M684.468729,1255 C880.596646,1255 1066.85145,1153.8821 1098.86348,975.617517 C1135.99866,768.823837 1255,734.217547 1255,562.030156 C1255,389.842765 1117.10724,460.933047 1076.07599,215.967262 C1048.22461,49.6882619 871.093041,16.8643235 730.043712,2.42113493 C482.757229,-22.9005402 450.84647,157.087773 350.481297,230.316211 C287.925073,275.958485 168.181365,259.01411 79.5633418,371.273537 C11.1871261,457.891072 -15.3257637,541.342262 8.66892355,657.408466 C50.0240009,857.4497 282.733692,768.823837 282.733692,975.617517 C282.733692,1182.4112 517.379729,1255 684.468729,1255 Z" id="Oval" fill="#1B8BE3"></path>
    </g>
</svg>