<?xml version="1.0" encoding="UTF-8"?>
<svg width="128px" height="23px" viewBox="0 0 128 23" version="1.1" xmlns="http://www.w3.org/2000/svg" xmlns:xlink="http://www.w3.org/1999/xlink">
    <!-- Generator: Sketch 55.2 (78181) - https://sketchapp.com -->
    <title>Designhunt</title>
    <desc>Created with Sketch.</desc>
    <g id="Web-app" stroke="none" stroke-width="1" fill="none" fill-rule="evenodd">
        <g id="Designhunt-v1.02" transform="translate(-102.000000, -32.000000)" fill="#FFFFFF" fill-rule="nonzero">
            <g id="Group-3">
                <path d="M102.416016,32.7617188 L106.306641,32.7617188 C108.814466,32.7617188 110.677728,33.0722625 111.896484,33.6933594 C113.11524,34.3144562 114.119137,35.3242118 114.908203,36.7226562 C115.69727,38.1211007 116.091797,39.7538969 116.091797,41.6210938 C116.091797,42.9492254 115.871096,44.1699163 115.429688,45.2832031 C114.988279,46.3964899 114.37891,47.3203088 113.601562,48.0546875 C112.824215,48.7890662 111.982426,49.2968736 111.076172,49.578125 C110.169917,49.8593764 108.599621,50 106.365234,50 L102.416016,50 L102.416016,32.7617188 Z M105.685547,35.9257812 L105.685547,46.7890625 L107.208984,46.7890625 C108.708992,46.7890625 109.796872,46.6171892 110.472656,46.2734375 C111.148441,45.9296858 111.70117,45.3515666 112.130859,44.5390625 C112.560549,43.7265584 112.775391,42.7265684 112.775391,41.5390625 C112.775391,39.7109284 112.263677,38.2929738 111.240234,37.2851562 C110.318355,36.3789017 108.837901,35.9257812 106.798828,35.9257812 L105.685547,35.9257812 Z M131.630859,44.5507812 L121.353516,44.5507812 C121.501954,45.4570358 121.898434,46.1777317 122.542969,46.7128906 C123.187503,47.2480496 124.009761,47.515625 125.009766,47.515625 C126.205084,47.515625 127.232418,47.0976604 128.091797,46.2617188 L130.787109,47.5273438 C130.115231,48.4804735 129.310552,49.1855446 128.373047,49.6425781 C127.435542,50.0996117 126.322272,50.328125 125.033203,50.328125 C123.033193,50.328125 121.404303,49.6972719 120.146484,48.4355469 C118.888666,47.1738218 118.259766,45.5937595 118.259766,43.6953125 C118.259766,41.7499903 118.886712,40.1347721 120.140625,38.8496094 C121.394538,37.5644467 122.966787,36.921875 124.857422,36.921875 C126.865244,36.921875 128.498041,37.5644467 129.755859,38.8496094 C131.013678,40.1347721 131.642578,41.8320207 131.642578,43.9414062 L131.630859,44.5507812 Z M128.419922,42.03125 C128.208983,41.3203089 127.792972,40.7421897 127.171875,40.296875 C126.550778,39.8515603 125.830082,39.6289062 125.009766,39.6289062 C124.119136,39.6289062 123.337894,39.8789037 122.666016,40.3789062 C122.244139,40.6914078 121.853517,41.2421836 121.494141,42.03125 L128.419922,42.03125 Z M142.025391,39.03125 L140.044922,41.0117188 C139.24023,40.2148398 138.509769,39.8164062 137.853516,39.8164062 C137.494139,39.8164062 137.212891,39.8925774 137.009766,40.0449219 C136.80664,40.1972664 136.705078,40.3867176 136.705078,40.6132812 C136.705078,40.7851571 136.769531,40.9433587 136.898438,41.0878906 C137.027344,41.2324226 137.345701,41.4296863 137.853516,41.6796875 L139.025391,42.265625 C140.259772,42.875003 141.10742,43.4960906 141.568359,44.1289062 C142.029299,44.7617219 142.259766,45.503902 142.259766,46.3554688 C142.259766,47.4882869 141.843754,48.43359 141.011719,49.1914062 C140.179683,49.9492225 139.06446,50.328125 137.666016,50.328125 C135.806631,50.328125 134.322271,49.6015698 133.212891,48.1484375 L135.181641,46.0039062 C135.556643,46.4414084 135.996091,46.7949205 136.5,47.0644531 C137.003909,47.3339857 137.45117,47.46875 137.841797,47.46875 C138.263674,47.46875 138.603514,47.3671885 138.861328,47.1640625 C139.119142,46.9609365 139.248047,46.7265638 139.248047,46.4609375 C139.248047,45.9687475 138.783208,45.4882836 137.853516,45.0195312 L136.775391,44.4804688 C134.71288,43.4414011 133.681641,42.1406328 133.681641,40.578125 C133.681641,39.5703075 134.070309,38.7089879 134.847656,37.9941406 C135.625004,37.2792933 136.619135,36.921875 137.830078,36.921875 C138.658207,36.921875 139.437496,37.1035138 140.167969,37.4667969 C140.898441,37.8300799 141.517576,38.3515591 142.025391,39.03125 Z M146.033203,32 C146.595706,32 147.078123,32.203123 147.480469,32.609375 C147.882815,33.015627 148.083984,33.5078096 148.083984,34.0859375 C148.083984,34.6562529 147.884768,35.1425761 147.486328,35.5449219 C147.087889,35.9472676 146.611331,36.1484375 146.056641,36.1484375 C145.486325,36.1484375 145.000002,35.9433614 144.597656,35.5332031 C144.19531,35.1230448 143.994141,34.6250029 143.994141,34.0390625 C143.994141,33.4765597 144.193357,32.9960957 144.591797,32.5976562 C144.990236,32.1992168 145.4707,32 146.033203,32 Z M144.427734,37.25 L147.638672,37.25 L147.638672,50 L144.427734,50 L144.427734,37.25 Z M159.955078,37.25 L163.142578,37.25 L163.142578,48.171875 C163.142578,50.3281358 162.708989,51.9140574 161.841797,52.9296875 C160.677729,54.3046944 158.92384,54.9921875 156.580078,54.9921875 C155.330072,54.9921875 154.279301,54.8359391 153.427734,54.5234375 C152.576168,54.2109359 151.857425,53.7519562 151.271484,53.1464844 C150.685544,52.5410126 150.251955,51.8046918 149.970703,50.9375 L153.498047,50.9375 C153.810548,51.2968768 154.212888,51.5683585 154.705078,51.7519531 C155.197268,51.9355478 155.779294,52.0273438 156.451172,52.0273438 C157.310551,52.0273438 158.001951,51.8945326 158.525391,51.6289062 C159.048831,51.3632799 159.417968,51.0195334 159.632812,50.5976562 C159.847657,50.1757791 159.955078,49.4492239 159.955078,48.4179688 C159.392575,48.9804716 158.802737,49.3847644 158.185547,49.6308594 C157.568356,49.8769544 156.869145,50 156.087891,50 C154.376945,50 152.931647,49.3828187 151.751953,48.1484375 C150.57226,46.9140563 149.982422,45.351572 149.982422,43.4609375 C149.982422,41.4374899 150.607416,39.8125061 151.857422,38.5859375 C152.99024,37.476557 154.341789,36.921875 155.912109,36.921875 C156.646488,36.921875 157.33984,37.0566393 157.992188,37.3261719 C158.644535,37.5957045 159.298825,38.0390594 159.955078,38.65625 L159.955078,37.25 Z M156.638672,39.9101562 C155.630854,39.9101562 154.798831,40.2480435 154.142578,40.9238281 C153.486325,41.5996128 153.158203,42.4492136 153.158203,43.4726562 C153.158203,44.5351616 153.494137,45.4062466 154.166016,46.0859375 C154.837894,46.7656284 155.681636,47.1054688 156.697266,47.1054688 C157.689458,47.1054688 158.507809,46.7734408 159.152344,46.109375 C159.796878,45.4453092 160.119141,44.5742241 160.119141,43.4960938 C160.119141,42.4335884 159.794925,41.5703158 159.146484,40.90625 C158.498044,40.2421842 157.662114,39.9101562 156.638672,39.9101562 Z M166.376953,37.25 L169.564453,37.25 L169.564453,38.5507812 C170.291019,37.9414032 170.949216,37.5175793 171.539062,37.2792969 C172.128909,37.0410144 172.732419,36.921875 173.349609,36.921875 C174.615241,36.921875 175.689449,37.3632768 176.572266,38.2460938 C177.314457,38.9960975 177.685547,40.1054614 177.685547,41.5742188 L177.685547,50 L174.521484,50 L174.521484,44.4101562 C174.521484,42.8867111 174.453126,41.8750025 174.316406,41.375 C174.179687,40.8749975 173.941408,40.4941419 173.601562,40.2324219 C173.261717,39.9707018 172.841799,39.8398438 172.341797,39.8398438 C171.693356,39.8398438 171.136721,40.0566385 170.671875,40.4902344 C170.207029,40.9238303 169.884767,41.5234337 169.705078,42.2890625 C169.611328,42.687502 169.564453,43.5507746 169.564453,44.8789062 L169.564453,50 L166.376953,50 L166.376953,37.25 Z M180.791016,32.328125 L183.966797,32.328125 L183.966797,38.5390625 C184.5918,37.9999973 185.2207,37.5957045 185.853516,37.3261719 C186.486331,37.0566393 187.12695,36.921875 187.775391,36.921875 C189.041022,36.921875 190.107418,37.3593706 190.974609,38.234375 C191.716801,38.9921913 192.087891,40.1054614 192.087891,41.5742188 L192.087891,50 L188.935547,50 L188.935547,44.4101562 C188.935547,42.9335864 188.865235,41.9335964 188.724609,41.4101562 C188.583984,40.8867161 188.343752,40.496095 188.003906,40.2382812 C187.664061,39.9804675 187.244143,39.8515625 186.744141,39.8515625 C186.0957,39.8515625 185.539065,40.0664041 185.074219,40.4960938 C184.609373,40.9257834 184.28711,41.511715 184.107422,42.2539062 C184.013671,42.6367207 183.966797,43.5117119 183.966797,44.8789062 L183.966797,50 L180.791016,50 L180.791016,32.328125 Z M195.169922,37.25 L198.404297,37.25 L198.404297,43.390625 C198.404297,44.5859435 198.486327,45.4160133 198.650391,45.8808594 C198.814454,46.3457054 199.078123,46.70703 199.441406,46.9648438 C199.804689,47.2226575 200.25195,47.3515625 200.783203,47.3515625 C201.314456,47.3515625 201.765623,47.2246106 202.136719,46.9707031 C202.507814,46.7167956 202.783202,46.3437525 202.962891,45.8515625 C203.095704,45.4843732 203.162109,44.6992248 203.162109,43.4960938 L203.162109,37.25 L206.373047,37.25 L206.373047,42.6523438 C206.373047,44.8789174 206.197267,46.4023396 205.845703,47.2226562 C205.416013,48.2226613 204.783207,48.9902317 203.947266,49.5253906 C203.111324,50.0605496 202.048835,50.328125 200.759766,50.328125 C199.361321,50.328125 198.230473,50.0156281 197.367188,49.390625 C196.503902,48.7656219 195.896486,47.8945368 195.544922,46.7773438 C195.294921,46.0039024 195.169922,44.5976664 195.169922,42.5585938 L195.169922,37.25 Z M209.583984,37.25 L212.771484,37.25 L212.771484,38.5507812 C213.498051,37.9414032 214.156247,37.5175793 214.746094,37.2792969 C215.33594,37.0410144 215.93945,36.921875 216.556641,36.921875 C217.822272,36.921875 218.89648,37.3632768 219.779297,38.2460938 C220.521488,38.9960975 220.892578,40.1054614 220.892578,41.5742188 L220.892578,50 L217.728516,50 L217.728516,44.4101562 C217.728516,42.8867111 217.660157,41.8750025 217.523438,41.375 C217.386718,40.8749975 217.148439,40.4941419 216.808594,40.2324219 C216.468748,39.9707018 216.048831,39.8398438 215.548828,39.8398438 C214.900387,39.8398438 214.343752,40.0566385 213.878906,40.4902344 C213.41406,40.9238303 213.091798,41.5234337 212.912109,42.2890625 C212.818359,42.687502 212.771484,43.5507746 212.771484,44.8789062 L212.771484,50 L209.583984,50 L209.583984,37.25 Z M224.373047,32.5507812 L227.560547,32.5507812 L227.560547,37.25 L229.458984,37.25 L229.458984,40.0039062 L227.560547,40.0039062 L227.560547,50 L224.373047,50 L224.373047,40.0039062 L222.732422,40.0039062 L222.732422,37.25 L224.373047,37.25 L224.373047,32.5507812 Z" id="Designhunt"></path>
            </g>
        </g>
    </g>
</svg>