<?xml version="1.0" encoding="UTF-8"?>
<svg width="763px" height="2px" viewBox="0 0 763 2" version="1.1" xmlns="http://www.w3.org/2000/svg" xmlns:xlink="http://www.w3.org/1999/xlink">
    <!-- Generator: Sketch 55.2 (78181) - https://sketchapp.com -->
    <title>Path 4</title>
    <desc>Created with Sketch.</desc>
    <g id="Web-app" stroke="none" stroke-width="1" fill="none" fill-rule="evenodd" opacity="0.399999976" stroke-dasharray="10">
        <g id="Setting---Plan-and-Billing" transform="translate(-399.000000, -695.000000)" stroke="#979797">
            <path d="M399,696 L1162,696" id="Path-4"></path>
        </g>
    </g>
</svg>