<?xml version="1.0" encoding="UTF-8"?>
<svg width="416px" height="313px" viewBox="0 0 416 313" version="1.1" xmlns="http://www.w3.org/2000/svg" xmlns:xlink="http://www.w3.org/1999/xlink">
    <!-- Generator: Sketch 55.2 (78181) - https://sketchapp.com -->
    <title>Group 19</title>
    <desc>Created with Sketch.</desc>
    <defs>
        <linearGradient x1="100%" y1="79.0872468%" x2="0%" y2="20.9127532%" id="linearGradient-1">
            <stop stop-color="#339FF3" offset="0%"></stop>
            <stop stop-color="#0279D6" offset="100%"></stop>
        </linearGradient>
        <linearGradient x1="100%" y1="100%" x2="0%" y2="0%" id="linearGradient-2">
            <stop stop-color="#339FF3" offset="0%"></stop>
            <stop stop-color="#0279D6" offset="100%"></stop>
        </linearGradient>
    </defs>
    <g id="Web-app" stroke="none" stroke-width="1" fill="none" fill-rule="evenodd">
        <g id="Designhunt---Home" transform="translate(-211.000000, -1978.000000)">
            <g id="Group-19" transform="translate(211.000000, 1978.000000)">
                <path d="M195.550426,313 C356.677272,313 408.161589,266.455411 408.161589,174.5 C408.161589,82.5445892 342.376072,36 196.503839,8 C50.6316057,-20 119.277363,84 35.3769931,161 C-48.5233764,238 34.4235798,313 195.550426,313 Z" id="Oval" fill="url(#linearGradient-1)"></path>
                <g id="Asset-1" transform="translate(118.000000, 0.000000)">
                    <path d="M223.509003,57.0346957 L225.759758,95.1209275 C225.759758,95.1209275 246.556737,96.0223768 252.768822,102.909449 L252.768822,73.8016522 C252.768822,70.0335942 252.012568,61.4698261 252.012568,61.4698261 L223.509003,57.0346957 Z" id="Path" fill="#1EA3F4" fill-rule="nonzero"></path>
                    <polygon id="Path" fill="#F39F42" fill-rule="nonzero" points="32.5639275 163.126261 32.5639275 149.252957 4.81661631 130.944522 4.81661631 176.999565 32.5639275 191.981652"></polygon>
                    <path d="M30.3941994,83.0685507 L30.3941994,117.567014 C30.3941994,117.567014 67.3786103,108.552522 80.8111178,109.183536 L80.8111178,73.0173913 C80.8111178,73.0173913 37.884713,73.6123478 30.3941994,83.0685507 Z" id="Path" fill="#1EA3F4" fill-rule="nonzero"></path>
                    <path d="M238.129909,17.7044638 L239.210272,87.2783188 C239.210272,87.2783188 282.073656,94.1653913 293.228399,109.453971 L293.453474,31.8752464 C293.453474,31.8752464 256.406042,18.3985797 238.129909,17.7044638 Z" id="Path" fill="#EBF6FF" fill-rule="nonzero"></path>
                    <path d="M1.95365559,59.108029 C1.39546828,59.8922899 1.32344411,60.7126087 1.32344411,62.236058 C1.32344411,64.0810242 1.32344411,65.9289952 1.32344411,67.779971 L1.32344411,82.5637391 C1.32344411,87.9724348 0.351117825,94.3456812 1.32344411,99.6101449 C1.89063444,102.71113 2.96199396,101.476145 5.40181269,100.277217 C7.65256798,99.1684348 9.97534743,98.1858551 12.325136,97.3024348 C17.2314054,95.491348 22.2508176,94.0037811 27.3511782,92.8492754 C28.6386103,92.5517971 41.7560121,90.3342319 41.7560121,89.9105507 C42.5363105,76.0322979 42.4220351,62.1181069 41.4138973,48.2545797 C34.3237939,47.8543885 27.2122686,48.4214881 20.2748036,49.9402899 C14.2938094,51.2888573 8.65462807,53.8573404 3.70924471,57.4854203 C3.04643404,57.9355091 2.45467562,58.4824437 1.95365559,59.108029 Z" id="Path" fill="#FFFFFF" fill-rule="nonzero"></path>
                    <path d="M1.33244713,67.779971 C1.33244713,67.779971 23.1017523,53.5190435 43.3765559,56.2053623 L41.4138973,48.2545797 C41.4138973,48.2545797 11.073716,45.3248696 0.774259819,60.3971014 L1.33244713,67.779971 Z" id="Path" fill="#1432C7" fill-rule="nonzero"></path>
                    <path d="M106.082598,291.609826 C110.521088,288.481797 115.679819,285.840551 121.090634,286.20113 C125.592145,286.507623 129.751541,288.905478 133.370755,291.654899 C139.485803,296.298543 144.641099,302.088036 148.549849,308.701304 L137.94429,309.332319 C137.340521,309.406551 136.727989,309.357486 136.143686,309.188087 C135.211095,308.707311 134.463914,307.930647 134.018973,306.979536 C131.840851,303.454379 129.300158,300.16721 126.438429,297.171768 C125.398734,295.917876 124.057093,294.949919 122.540121,294.359246 C120.082296,293.611043 117.390393,294.800957 115.490755,296.531739 C113.591118,298.262522 112.231662,300.50713 110.548097,302.463275 C108.072394,305.302215 104.937274,307.487832 101.419033,308.827507 C99.4383686,309.593739 91.5787311,312.06371 89.814139,310.11658 C86.9061631,306.979536 103.309668,293.565971 106.082598,291.609826 Z" id="Path" fill="#1B1344" fill-rule="nonzero"></path>
                    <rect id="Rectangle" fill="#1B1344" fill-rule="nonzero" x="114.338369" y="269.289942" width="11.496858" height="26.2772464" rx="5.022"></rect>
                    <path d="M156.589547,241.065565 C141.635529,239.379855 125.367069,245.708029 110.314018,245.933391 C106.879513,245.903964 103.448809,246.169361 100.059577,246.726667 C94.49571,247.781362 89.3099698,250.251333 84.2052568,252.694261 C80.045861,254.686464 72.3392749,252.694261 68.9991541,255.876377 C67.9548036,256.867971 70.4306344,262.141449 70.4666465,263.583768 C70.5478185,264.520888 70.8945179,265.415324 71.4659819,266.161913 C74.1668882,270.236464 78.8844713,272.670377 83.6740785,273.76113 C88.4636858,274.851884 93.4243505,274.74371 98.330997,274.74371 C108.14429,274.74371 117.966586,275.122319 127.743867,274.329043 C130.759523,274.194743 133.738754,273.614541 136.584834,272.607275 C140.771239,270.948609 144.345438,267.883681 148.000665,265.323565 C150.494502,263.574754 153.14139,262.438928 155.743263,260.924493 C161.685257,257.480957 165.457523,242.066174 156.589547,241.065565 Z" id="Path" fill="#1432C7" fill-rule="nonzero"></path>
                    <path d="M156.589547,241.065565 C141.635529,239.379855 125.367069,245.708029 110.314018,245.933391 C106.879513,245.903964 103.448809,246.169361 100.059577,246.726667 C94.49571,247.781362 89.3099698,250.251333 84.2052568,252.694261 C80.045861,254.686464 72.3392749,252.694261 68.9991541,255.876377 C67.9548036,256.867971 70.4306344,262.141449 70.4666465,263.583768 C70.5478185,264.520888 70.8945179,265.415324 71.4659819,266.161913 C74.1668882,270.236464 78.8844713,272.670377 83.6740785,273.76113 C88.4636858,274.851884 93.4243505,274.74371 98.330997,274.74371 C108.14429,274.74371 117.966586,275.122319 127.743867,274.329043 C130.759523,274.194743 133.738754,273.614541 136.584834,272.607275 C140.771239,270.948609 144.345438,267.883681 148.000665,265.323565 C150.494502,263.574754 153.14139,262.438928 155.743263,260.924493 C161.685257,257.480957 165.457523,242.066174 156.589547,241.065565 Z" id="Path" fill="#1B1344" fill-rule="nonzero" opacity="0.35"></path>
                    <path d="M153.951662,240.425536 C138.990424,238.736533 123.936815,238.004873 108.882538,238.235014 C105.448032,238.205587 102.017328,238.470984 98.6280967,239.02829 C93.0642296,240.082986 87.8784894,242.552957 82.7737764,244.995884 C78.6143807,246.988087 74.3829607,249.025362 71.0698489,252.207478 C70.0254985,253.199072 69.0261631,254.452087 69.0526369,255.894406 C69.1343442,256.831526 69.4810436,257.725961 70.0525076,258.472551 C72.7534139,262.547101 77.470997,264.981014 82.2606042,266.071768 C87.0502115,267.162522 92.0108761,267.054348 96.9175227,267.054348 C106.730816,267.054348 116.553112,267.432957 126.330393,266.639681 C129.346049,266.50538 132.32528,265.925178 135.17136,264.917913 C139.357764,263.259246 142.931964,260.194319 146.58719,257.634203 C149.081027,255.885391 151.727915,254.749565 154.329789,253.23513 C160.253776,249.773565 162.783625,241.426145 153.951662,240.425536 Z" id="Path" fill="#1432C7" fill-rule="nonzero"></path>
                    <path d="M143.418127,241.768696 C142.081725,241.313115 140.658613,241.171239 139.258731,241.354029 C124.667835,242.183362 110.136959,243.685778 95.6661027,245.861275 C93.8654985,246.13171 91.7047734,246.762725 91.3176435,248.565623 C90.8404834,250.765159 93.5143807,252.234522 95.7111178,252.71229 C98.962731,253.418821 102.288888,253.721584 105.614441,253.613739 C107.18997,253.559652 108.855529,253.433449 110.269003,254.13658 C114.041269,255.993565 113.42006,261.979188 116.571118,264.719594 C119.722175,267.46 124.38574,265.621043 128.022961,263.818145 C135.414441,260.086145 142.931964,256.417246 149.945317,251.99113 C152.439154,250.413594 154.86997,248.628725 151.745921,246.13171 C150.665559,245.230261 148.603867,245.230261 147.325438,244.572203 C145.974985,243.787942 144.94864,242.417739 143.418127,241.768696 Z" id="Path" fill="#1B1344" fill-rule="nonzero" opacity="0.35"></path>
                    <path d="M150.422477,126.572493 C150.422477,126.572493 172.93003,128.375391 176.729305,130.971565 C180.52858,133.567739 181.680967,132.531072 181.680967,138.606841 C181.680967,144.682609 178.457885,186.969594 178.457885,186.969594 L166.555891,188.402899 L166.177764,160.665304 C166.151973,158.670528 165.328776,156.769322 163.892292,155.386914 C162.455808,154.004506 160.525895,153.256241 158.534199,153.309478 L132.425438,153.985565 L116.436073,210.037681 L108.576435,236.287884 L91.533716,236.287884 C91.533716,236.287884 105.443384,189.042928 102.238308,175.04342 C99.0332326,161.043913 101.581088,137.056348 101.581088,137.056348 L150.422477,126.572493 Z" id="Path" fill="#1B1344" fill-rule="nonzero"></path>
                    <path d="M141.887613,132.017246 C138.463272,133.51465 134.962206,134.829599 131.399094,135.95658 C127.36574,137.290725 122.711178,138.715014 118.254683,139.850841 C115.958912,140.436783 113.753172,140.950609 111.637462,141.338232 C106.667795,142.239681 102.634441,142.474058 101.220967,141.266116 C99.4203625,139.76971 99.9605438,136.073768 100.167613,134.054522 C100.577058,130.15417 101.296581,126.292735 102.319335,122.506957 C103.273656,118.901159 105.083263,115.719043 105.84852,111.996058 C106.244653,110.121043 106.568761,108.246029 107.000906,106.389043 C107.171964,105.676899 107.901208,101.46713 108.639456,101.268812 C106.162132,101.954844 103.556958,102.038291 101.040906,101.512203 C100.110569,101.310863 99.2049198,101.008595 98.34,100.610754 C95.0879057,99.1519028 92.7241533,96.2294343 91.974864,92.7411014 C91.3536556,89.3426377 92.5690634,85.8991014 93.7754683,82.6538841 C95.36,78.335942 96.4313595,72.1610145 99.6814502,68.8256522 C101.927476,66.7440061 104.561653,65.1265639 107.433051,64.066 C111.797347,62.2319407 116.316907,60.7928893 120.937583,59.766087 C134.145015,55.8898551 149.648218,62.8851014 152.745257,66.7703478 C154.743927,69.2763768 151.763927,84.7001739 149.396133,95.2922029 C148.099698,101.106551 146.992326,105.460551 146.992326,105.460551 C146.992326,105.460551 146.992326,126.013594 150.422477,126.581507 C153.177402,127.032232 146.542175,129.691507 141.887613,132.017246 Z" id="Path" fill="#1432C7" fill-rule="nonzero"></path>
                    <path d="M140.321088,67.6898261 L139.699879,80.8149275 L134.496133,87.5307246 L121.819879,98.6095362 L118.218671,105.902261 C118.218671,105.902261 111.80852,121.65058 109.773837,128.348348 C108.14429,133.757043 110.674139,139.328 111.673474,141.338232 C106.703807,142.239681 102.670453,142.474058 101.256979,141.266116 C99.4563746,139.76971 99.9965559,136.073768 100.203625,134.054522 C100.613071,130.15417 101.332593,126.292735 102.355347,122.506957 C103.309668,118.901159 105.119275,115.719043 105.884532,111.996058 C106.280665,110.121043 106.604773,108.246029 107.036918,106.389043 C107.207976,105.676899 107.937221,101.46713 108.675468,101.268812 C106.198144,101.954844 103.59297,102.038291 101.076918,101.512203 L101.6171,100.358348 L101.6171,97.1401739 L109.233656,93.6335362 L124.47577,77.8852174 L140.321088,67.6898261 Z" id="Path" fill="#1B1344" fill-rule="nonzero" opacity="0.35"></path>
                    <path d="M169.490876,54.8531884 C169.490876,54.8531884 179.57426,75.0456522 178.8,83.5913913 C178.02574,92.1371304 148.549849,88.2518841 148.549849,88.2518841 L147.001329,68.8346667 L150.107372,57.1789275 L160.965015,71.1604058 L157.084713,54.8441739 L169.490876,54.8531884 Z" id="Path" fill="#1432C7" fill-rule="nonzero"></path>
                    <path d="M150.845619,88.5133043 L148.333776,67.6898261 C148.333776,67.6898261 158.597221,83.5823768 164.278127,82.158087 C167.306649,81.4588644 170.250017,80.4311511 173.056073,79.0931594 L167.132085,59.1981739 L159.776616,55.7275942 L169.959033,56.3495942 L172.858006,62.2 C172.858006,62.2 180.546586,79.6610725 178.367855,85.0246957 C176.189124,90.3883188 153.222417,89.7032174 150.845619,88.5133043 Z" id="Path" fill="#1B1344" fill-rule="nonzero" opacity="0.35"></path>
                    <path d="M185.14713,43.9276232 C185.14713,52.1758841 192.223505,60.352029 186.560604,63.0383478 C184.967069,63.7955652 171.750634,59.4325507 169.95003,59.4325507 C161.766284,59.4325507 155.545196,54.5106377 155.545196,43.9456522 C155.545196,33.3806667 160.703927,27.7195652 168.887674,27.7195652 C170.868338,27.7195652 187.181813,24.4292754 188.910393,25.3397391 C194.285196,28.1883188 185.14713,35.9227536 185.14713,43.9276232 Z" id="Path" fill="#7CAD6D" fill-rule="nonzero"></path>
                    <path d="M211.688036,43.4318261 C211.688036,50.5352464 218.134199,57.5755652 212.984471,59.8922899 C211.534985,60.5413333 199.47994,57.7738841 197.850393,57.7738841 C190.395891,57.7738841 184.696979,52.5274493 184.696979,43.4318261 C184.696979,34.3362029 188.78435,28.5669275 196.265861,28.5669275 C198.066465,28.5669275 213.533656,26.6288116 215.109184,27.422087 C220.006828,29.874029 211.688036,36.5357391 211.688036,43.4318261 Z" id="Path" fill="#7CAD6D" fill-rule="nonzero"></path>
                    <ellipse id="Oval" fill="#7CAD6D" fill-rule="nonzero" cx="213.056495" cy="43.558029" rx="13.0723867" ry="16.8841449"></ellipse>
                    <ellipse id="Oval" fill="#7CAD6D" fill-rule="nonzero" cx="185.858369" cy="43.9276232" rx="14.8099698" ry="19.1377681"></ellipse>
                    <ellipse id="Oval" stroke="#C0EFB1" stroke-width="0.774" stroke-linecap="round" cx="185.858369" cy="43.9276232" rx="14.8099698" ry="19.1377681"></ellipse>
                    <ellipse id="Oval" stroke="#C0EFB1" stroke-width="0.675" stroke-linecap="round" cx="212.939456" cy="43.4137971" rx="12.9553474" ry="16.739913"></ellipse>
                    <path d="M150.206405,28.8463768 L150.206405,28.9094783 C150.530514,30.3067246 149.630211,32.0645507 149.414139,33.4167246 C148.81994,37.1216812 149.009003,40.8987536 148.513837,44.6037101 C148.152166,47.1123992 147.458857,49.5617789 146.452145,51.8874203 C146.043911,52.9329226 145.462573,53.9020377 144.732568,54.754029 C142.553837,57.1158261 138.943625,57.3502029 135.729547,57.187942 C135.023049,57.0794512 134.300287,57.1797017 133.649849,57.4764058 C132.353414,58.2426377 133.343746,61.3616522 132.749547,62.7138261 C132.122295,63.9599461 130.924658,64.8188974 129.544471,65.0125217 C128.183303,65.1885474 126.802515,65.1398232 125.4571,64.8682899 C124.508303,64.805913 123.585463,64.5317883 122.756193,64.066 C121.873939,63.3548618 121.196547,62.4214836 120.793535,61.3616522 C118.698122,57.2455714 116.951408,52.9606693 115.571782,48.552058 C112.249668,36.8332174 116.265015,22.9418841 128.347069,18.1281449 C132.263384,16.5686377 136.098671,15.8024058 138.565498,17.1726087 C141.927012,19.1494887 144.889044,21.7392185 147.298429,24.8078841 C148.216737,25.9166667 149.828278,27.422087 150.206405,28.8463768 Z" id="Path" fill="#F5B8B7" fill-rule="nonzero"></path>
                    <path d="M163.620906,30.3247536 L142.103686,35.0303188 C139.8498,36.053074 138.450014,38.352078 138.574502,40.8266377 C138.56361,42.9981284 139.642499,45.0299713 141.446465,46.2353333 L158.264109,50.2557971 L163.620906,30.3247536 Z" id="Path" fill="#7CAD6D" fill-rule="nonzero"></path>
                    <path d="M116.138973,48.7774203 C115.324147,47.5854738 115.080075,46.0927561 115.472749,44.7028696 C115.950842,43.2475591 117.476202,42.4148437 118.956918,42.8008116 C120.622477,43.4137971 121.198671,45.7305217 122.891239,46.2713913 L122.27003,40.466058 C122.107976,38.9696522 121.783867,36.3193913 123.170332,35.2827246 C124.556798,34.246058 127.599819,34.5976232 129.229366,34.173942 C132.715062,33.2002693 135.695431,30.9258502 137.55716,27.8187246 C139.303746,24.9791594 139.690876,22.0314203 140.186042,18.8042319 C141.419456,19.3901739 142.706888,21.806058 143.688218,22.8787826 C145.022001,24.2421814 146.255627,25.700318 147.379456,27.2417971 C149.310658,30.1096645 150.053153,33.6167653 149.450151,37.0225217 C151.403807,34.3993043 153.41148,31.685942 154.176737,28.5038261 C154.562396,26.7525353 154.659619,24.9499475 154.464834,23.1672464 C153.713537,15.3990108 149.494159,8.38757568 142.985982,4.09257971 C140.496631,2.4122967 137.646519,1.34368699 134.66719,0.973565217 C131.670384,0.614222997 128.643344,1.32962973 126.123323,2.99281159 C114.307893,11.1953864 100.168736,15.3707883 85.7987915,14.9009565 C79.8567976,14.6485507 74.2299094,12.1966087 68.3509366,11.2951594 C58.0767627,9.7488124 47.6426309,12.7973518 39.8113595,19.6335652 C38.1599629,21.0362551 36.7329358,22.6839875 35.5799396,24.5194203 C34.0728644,27.2621977 33.1530189,30.2892754 32.8790332,33.4077101 C31.6816314,43.0802609 34.1394562,53.5551014 40.9817523,60.4511884 C43.8267069,63.3177971 47.9320846,65.5894493 51.7853776,64.3905217 C54.6446778,69.0938059 59.7888524,71.9168209 65.2867201,71.799775 C70.7845878,71.6827291 75.8042731,68.6433324 78.4613293,63.8226087 C78.6323867,65.986087 81.315287,66.8875362 83.4850151,66.9957101 C89.3205698,67.1514115 95.1040498,65.8600831 100.320665,63.2366667 C102.769486,62.0737971 105.101269,60.4331594 107.523082,59.5046667 C109.323686,58.8195652 110.602115,56.9175072 112.492749,56.5028406 C113.468692,56.3623099 114.463828,56.5426116 115.328701,57.0166667 C117.323492,57.9436223 119.051664,59.3607927 120.352387,61.1362899 C119.971747,58.7980593 119.847968,56.4251249 119.983263,54.059913 C120.03337,53.6946752 120.005756,53.3229558 119.902236,52.9691594 C119.750104,52.6202651 119.518925,52.3116329 119.227009,52.0677101 C118.095753,51.1206743 117.083061,50.0401014 116.210997,48.8495362 L116.138973,48.7774203 Z" id="Path" fill="#1B1344" fill-rule="nonzero"></path>
                    <path d="M109.233656,101.079507 C109.233656,101.079507 134.658187,80.805913 143.886284,65.8057971 C145.524834,63.1014493 148.792931,59.9103188 146.542175,57.6927536 L142.607855,53.9066667 C140.285076,51.662058 136.971964,53.8615942 134.352085,55.7095652 L100.986888,76.8936232 C100.986888,76.8936232 83.1158912,103.098754 109.233656,101.079507 Z" id="Path" fill="#1432C7" fill-rule="nonzero"></path>
                    <path d="M144.561511,41.6830145 C146.425136,37.1757681 148.666888,32.5062609 152.66423,29.7388116 C153.216586,29.2349775 153.993402,29.0602282 154.707915,29.2790725 C154.89186,29.409794 155.095498,29.5102215 155.311118,29.5765507 C155.588581,29.5775979 155.857107,29.478373 156.067372,29.2971014 C156.994338,28.6804063 158.003639,28.1978739 159.065378,27.8637971 C159.767613,27.6474493 160.694924,27.5753333 161.055045,28.2063478 C161.415166,28.8373623 160.865982,29.6396522 160.325801,30.1534783 C159.542538,30.8926667 158.705257,31.5867826 157.985015,32.3890725 C154.941994,35.7965507 154.383807,40.8176232 155.095045,45.3338841 C155.460809,46.9690786 155.618114,48.6440965 155.563202,50.3188986 C155.253008,52.5337017 154.176037,54.5691552 152.520181,56.0701449 C150.871869,57.5602316 148.99668,58.7774624 146.965317,59.675942 C146.392991,60.001633 145.750566,60.1840916 145.092689,60.2077971 C144.477109,60.1386542 143.884069,59.9355946 143.355106,59.6128406 C141.613194,58.8585721 140.046629,57.7504498 138.754562,56.3586087 C137.350091,54.6097971 138.304411,53.5821449 139.447795,52.0046087 C141.734562,48.8585507 143.103021,45.2166957 144.561511,41.6830145 Z" id="Path" fill="#F5B8B7" fill-rule="nonzero"></path>
                    <path d="M200.52429,43.9276232 C200.56289,47.6055805 199.597882,51.2242959 197.733353,54.3934493 L197.733353,54.3934493 C195.482598,58.1344638 192.043444,60.6224638 188.136133,60.9289565 C187.875045,60.9289565 187.604955,60.9289565 187.334864,60.9289565 C180.05142,60.9289565 174.145438,53.3026957 174.145438,43.8915652 C174.145438,37.5183188 176.846344,31.9563768 180.870695,29.0356812 C182.734586,27.6294211 185.001119,26.8613579 187.334864,26.8451594 C192.241511,26.8451594 196.508943,30.2977101 198.786707,35.4269565 C199.955361,38.1069932 200.547395,41.0033634 200.52429,43.9276232 L200.52429,43.9276232 Z" id="Path" fill="#1B1344" fill-rule="nonzero"></path>
                    <path d="M224.57136,43.6031014 C224.57136,51.7161449 219.547674,58.3868696 213.290574,58.6212464 C213.170667,58.6292682 213.05036,58.6292682 212.930453,58.6212464 C206.511299,58.6212464 201.289547,51.8964348 201.289547,43.594087 C201.289547,38.1853913 203.531299,33.3806667 206.889426,30.7394203 C208.595472,29.349478 210.722106,28.5803716 212.92145,28.557913 C219.35861,28.5669275 224.57136,35.3007536 224.57136,43.6031014 Z" id="Path" fill="#1B1344" fill-rule="nonzero"></path>
                    <path d="M194.843384,46.0911014 C194.843384,52.4643478 192.142477,58.0172754 188.136133,60.937971 C187.875045,60.937971 187.604955,60.937971 187.334864,60.937971 C180.05142,60.937971 174.145438,53.3117101 174.145438,43.9005797 C174.145438,37.5273333 176.846344,31.9653913 180.870695,29.0446957 C181.131782,29.0446957 181.39287,29.0446957 181.653958,29.0446957 C188.937402,29.0446957 194.843384,36.679971 194.843384,46.0911014 Z" id="Path" fill="#31297C" fill-rule="nonzero"></path>
                    <path d="M218.890453,45.7575652 C218.890453,51.1662609 216.648701,55.9709855 213.290574,58.6122319 C213.170667,58.6202537 213.05036,58.6202537 212.930453,58.6122319 C206.511299,58.6122319 201.289547,51.8874203 201.289547,43.5850725 C201.289547,38.1763768 203.531299,33.3716522 206.889426,30.7304058 C207.009338,30.7225416 207.129635,30.7225416 207.249547,30.7304058 C213.677704,30.7304058 218.890453,37.4552174 218.890453,45.7575652 Z" id="Path" fill="#31297C" fill-rule="nonzero"></path>
                    <path d="M138.349426,53.4829855 L102.292326,76.8755942" id="Path" stroke="#8DA8FF" stroke-width="0.774" stroke-linecap="round"></path>
                    <path d="M142.463807,10.6551304 C140.096012,12.2957681 139.294743,15.4237971 139.087674,18.2994203 C138.880604,21.1750435 139.042659,24.1678551 137.890272,26.8181159 C136.611843,29.7658551 133.820906,31.8482029 130.813897,32.9750145 C127.754356,33.9693891 124.567371,34.5159051 121.351722,34.5976232 C121.200666,38.0128212 118.336089,40.6721572 114.923565,40.5652174" id="Path" stroke="#8DA8FF" stroke-width="1.548" stroke-linecap="round"></path>
                    <path d="M106.577764,41.9354203 C100.209571,43.4626205 93.6438339,43.9947519 87.1132326,43.5129565 C83.8091239,43.2695652 80.1268882,42.8548986 77.5070091,44.8471014 C75.346284,46.4697101 74.490997,49.2551884 73.1945619,51.644029 C69.5258097,58.1623609 62.353877,61.8908579 54.918429,61.1453043 C54.6957093,62.673077 53.5708144,63.9134638 52.0734743,64.2823478" id="Path" stroke="#8DA8FF" stroke-width="1.548" stroke-linecap="round"></path>
                    <path d="M120.937583,59.7751014 C120.937583,59.7751014 102.454381,64.3905217 99.6814502,68.8436812 C96.9085196,73.2968406 90.678429,89.3426377 91.9928701,92.7501159 C91.9928701,92.7501159 98.2949849,112.455797 117.480423,94.1293333" id="Path" stroke="#8DA8FF" stroke-width="1.548" stroke-linecap="round"></path>
                    <path d="M108.639456,101.277826 C108.639456,101.277826 106.271662,105.622812 105.542417,113.276116 C104.813172,120.92942 101.464048,120.379536 100.761813,129.664464 C100.059577,138.949391 101.220967,141.257101 101.220967,141.257101" id="Path" stroke="#8DA8FF" stroke-width="1.548" stroke-linecap="round"></path>
                    <path d="M150.422477,126.581507 C149.765257,127.627188 139.996979,132.377826 131.399094,135.95658 C124.59281,138.78713 118.524773,140.887507 118.254683,139.850841 C117.939577,138.516696 127.8429,105.74 132.344411,101.92687 C135.846586,99.0151884 134.28006,124.697478 134.28006,124.697478 L147.27142,96.6984638 L149.360121,95.2831884 C148.063686,101.097536 146.956314,105.451536 146.956314,105.451536 C146.956314,105.451536 146.992326,126.013594 150.422477,126.581507 Z" id="Path" fill="#1B1344" fill-rule="nonzero" opacity="0.35"></path>
                    <path d="M166.555891,188.402899 C166.204773,190.016493 165.80864,191.621072 165.511541,193.252696 C165.232447,194.722058 164.260121,197.759942 165.115408,199.193246 C165.970695,200.626551 194.825378,187.816957 194.528278,186.942551 C194.060121,185.527275 188.595287,185.319942 187.496918,185.238812 C185.603961,185.070294 183.696617,185.176561 181.834018,185.554319 C179.87136,185.996029 178.349849,187.853014 176.86435,185.824754 C176.477587,185.119458 175.896262,184.540521 175.189789,184.157072 C174.677687,184.007233 174.136678,183.985565 173.61426,184.093971 C172.212275,184.236492 170.849872,184.643286 169.598912,185.292899 C168.865944,185.697027 168.225115,186.24964 167.717281,186.915507 C167.312145,187.429333 167.150091,188.402899 166.555891,188.402899 Z" id="Path" fill="#95C4CB" fill-rule="nonzero"></path>
                    <path d="M91.533716,236.251826 L90.0032024,246.528348 L100.050574,247.844464 L120.36139,244.130493 C119.79884,241.483584 117.892573,239.325183 115.337704,238.442348 C110.971239,236.909884 108.567432,236.251826 108.567432,236.251826 L91.533716,236.251826 Z" id="Path" fill="#95C4CB" fill-rule="nonzero"></path>
                    <path d="M100.950876,145.241507 C100.950876,145.241507 98.2499698,166.87629 102.238308,174.989333 C106.226647,183.102377 98.9702115,206.837536 98.9702115,206.837536 L91.533716,236.224783" id="Path" stroke="#8DA8FF" stroke-width="1.548" stroke-linecap="round"></path>
                    <path d="M182.302175,25.3397391 L164.980363,28.1973333 C164.980363,28.1973333 155.428157,30.3247536 155.52719,39.7268696 C155.626224,49.1289855 156.59855,53.7714493 161.640242,57.1969565" id="Path" stroke="#C0EFB1" stroke-width="0.774" stroke-linecap="round"></path>
                    <path d="M209.221208,27.4130725 L195.293535,28.612" id="Path" stroke="#C0EFB1" stroke-width="0.774" stroke-linecap="round"></path>
                    <path d="M205.421934,195.686609 L200.767372,215.094812 C199.777039,219.259507 196.265861,222.712058 192.826707,222.820232 L167.717281,223.613507 L166.222779,223.667594 C162.82864,223.775768 160.874985,220.485478 161.865317,216.329797 L166.555891,196.91258 C167.546224,192.756899 171.11142,189.295333 174.496556,189.187159 L201.100483,188.348812 C204.179517,188.249652 206.061148,190.935971 205.647009,194.523739 C205.600382,194.916336 205.525157,195.304994 205.421934,195.686609 Z" id="Path" fill="#1432C7" fill-rule="nonzero"></path>
                    <path d="M205.421934,195.686609 L200.767372,215.094812 C199.777039,219.259507 196.265861,222.712058 192.826707,222.820232 L167.717281,223.613507 C167.380515,222.374002 167.380515,221.066926 167.717281,219.82742 L171.957704,201.987739 C172.858006,198.174609 176.135106,195.001507 179.259154,194.902348 L203.702356,194.127101 C204.36561,194.096991 205.025588,194.236601 205.62,194.532754 C205.581817,194.921646 205.515622,195.307268 205.421934,195.686609 Z" id="Path" fill="#1B1344" fill-rule="nonzero" opacity="0.35"></path>
                    <path d="M187.893051,214.094203 C187.990411,213.057088 187.835976,212.011777 187.4429,211.047304 C186.39855,208.901855 183.373535,208.342957 181.239819,209.379623 C179.106103,210.41629 177.791662,212.678928 177.089426,214.959594 C176.38719,217.240261 176.189124,219.64713 175.594924,221.954841 C174.352508,226.813652 171.453535,231.050464 168.60858,235.179101 C163.017704,243.292145 156.59855,252.009159 147.001329,254.407014 C149.018006,257.363768 152.979335,258.499594 156.517523,258.012812 C160.05571,257.526029 163.242779,255.660029 166.19577,253.631768 C172.722961,249.124522 178.745982,243.38229 182.275166,236.197739 C183.823686,233.042667 184.264834,230.049855 184.922054,226.687449 C185.80435,222.378522 187.749003,218.610464 187.893051,214.094203 Z" id="Path" fill="#1B1344" fill-rule="nonzero"></path>
                    <path d="M192.304532,93.1106957 C245.971541,96.7164928 284.135347,106.010435 284.135347,116.899942 C284.135347,130.926493 220.70006,142.302783 142.445801,142.302783 C64.1915408,142.302783 0.774259819,130.926493 0.774259819,116.899942 C0.774259819,106.479188 35.7870091,97.5187826 85.8708157,93.6064928" id="Path" stroke="#8DA8FF" stroke-width="1.548" stroke-linecap="round"></path>
                    <path d="M224.57136,204.430667 C260.637462,209.037072 284.153353,216.591217 284.153353,225.164 C284.153353,239.190551 220.718066,250.566841 142.463807,250.566841 C64.2095468,250.566841 0.774259819,239.163507 0.774259819,225.136957 C0.774259819,214.716203 35.7870091,205.755797 85.8708157,201.843507" id="Path" stroke="#8DA8FF" stroke-width="1.548" stroke-linecap="round"></path>
                    <path d="M226.993172,75.2890435 C229.203632,74.9570063 231.439079,74.8212607 233.673414,74.8833913 C256.883202,75.5324348 276.518792,82.5907826 279.768882,85.0787826" id="Path" stroke="#8DA8FF" stroke-width="1.548" stroke-linecap="round"></path>
                    <path d="M9.39915408,171.113101 C14.5668882,174.989333 21.4091843,175.575275 27.8463444,176.007971 L42.2511782,176.990551" id="Path" stroke="#8DA8FF" stroke-width="1.548" stroke-linecap="round"></path>
                    <path d="M248.735468,142.302783 L248.735468,206.008203 L255.262659,205.458319 C271.017648,204.133836 285.697015,196.918361 296.379456,185.247826 L296.379456,185.247826 L297.360785,116.629507 L293.759577,120.74913 C284.689998,131.216254 272.28564,138.2225 258.647795,140.581014 L248.735468,142.302783 Z" id="Path" fill="#AECEFA" fill-rule="nonzero"></path>
                    <path d="M11.496858,153.489768 L29.2148036,161.846203 C32.5648168,163.427201 36.234676,164.210855 39.9374018,164.135884 L56.8630816,163.793333 L57.1151662,226.894783 L49.3365559,228.120754 C38.4713474,229.83849 27.3445072,227.867949 17.7269486,222.522754 L11.496858,219.052174 L11.496858,153.489768 Z" id="Path" fill="#FFFFFF" fill-rule="nonzero"></path>
                    <path d="M207.357583,81.9597681 L209.608338,120.046 C209.608338,120.046 230.405317,120.947449 236.617402,127.834522 L236.617402,98.7177101 C236.617402,94.9496522 235.861148,86.3858841 235.861148,86.3858841 L207.357583,81.9597681 Z" id="Path" fill="#F39F42" fill-rule="nonzero"></path>
                    <path d="M25.8296677,210.704754 C25.8296677,210.704754 70.223565,230.392406 140.321088,223.65858" id="Path" stroke="#8DA8FF" stroke-width="1.548" stroke-linecap="round"></path>
                </g>
                <circle id="Oval" fill="url(#linearGradient-2)" cx="22" cy="105" r="22"></circle>
            </g>
        </g>
    </g>
</svg>